…
    mpg %>% lm_test( cty ~ hwy )
    #> Results for linear model: cty ~ hwy
    #> # A tibble: 2 × 5
    #>   term      estimate std.error statistic   p.value
    #>   <chr>        <dbl>     <dbl>     <dbl>     <dbl>
    #> 1 hwy          0.683    0.0138     49.6  1.87e-125
    #> 2 intercept    0.844    0.333       2.53 1.19e-  2

For grouped input:


    mpg %>% group_by(class) %>%  lm_test(cty ~ hwy * cyl + 0)
    #> Results for linear model: cty ~ hwy * cyl + 0
    #> # A tibble: 21 × 6
    #>    class      term    estimate std.error statistic  p.value
    #>    <chr>      <chr>      <dbl>     <dbl>     <dbl>    <dbl>
    #>  1 suv        hwy       0.878     0.0329     26.7  1.26e-34
    #>  2 compact    hwy       0.818     0.0396     20.6  3.03e-24
    #>  3 midsize    hwy       0.799     0.0423     18.9  6.64e-21
    #>  4 pickup     hwy       0.863     0.0399     21.6  7.46e-20
    #>  5 subcompact hwy       0.817     0.0548     14.9  5.87e-16
    #>  6 minivan    hwy       0.826     0.0510     16.2  2.13e- 7
    #>  7 suv        hwy:cyl  -0.0437    0.0120     -3.65 5.59e- 4
    #>  8 suv        cyl       0.424     0.150       2.83 6.37e- 3
    #>  9 midsize    hwy:cyl  -0.0579    0.0295     -1.96 5.72e- 2
    #> 10 2seater    hwy       0.353     0.132       2.68 7.48e- 2
    #> # ℹ 11 more rows

For nested input with a quoted model formula:

    mpg |>  nest_by(class) |>  lm_test("cty ~ hwy * cyl + 0")
    #> Results for linear model: cty ~ hwy * cyl + 0
    #> # A tibble: 21 × 6
    #>    class      term    estimate std.error statistic  p.value
    #>    <chr>      <chr>      <dbl>     <dbl>     <dbl>    <dbl>
    #>  1 suv        hwy       0.878     0.0329     26.7  1.26e-34
    #>  2 compact    hwy       0.818     0.0396     20.6  3.03e-24
    #>  3 midsize    hwy       0.799     0.0423     18.9  6.64e-21
    #>  4 pickup     hwy       0.863     0.0399     21.6  7.46e-20
    #>  5 subcompact hwy       0.817     0.0548     14.9  5.87e-16
    #>  6 minivan    hwy       0.826     0.0510     16.2  2.13e- 7
    #>  7 suv        hwy:cyl  -0.0437    0.0120     -3.65 5.59e- 4
    #>  8 suv        cyl       0.424     0.150       2.83 6.37e- 3
    #>  9 midsize    hwy:cyl  -0.0579    0.0295     -1.96 5.72e- 2
    #> 10 2seater    hwy       0.353     0.132       2.68 7.48e- 2
    #> # ℹ 11 more rows
